{
    "Core": true,
    "Dashboard": true,
    "Media": true,
    "Menu": true,
    "Page": true,
    "Setting": true,
    "Tag": true,
    "Translation": true,
    "User": true,
    "Workshop": true,
    "Clients": true,
    "AuditPlan": true,
    "Auditing": true,
    "Appointments": true,
    "Employee": true,
    "Audit": true,
    "Appointment": true,
    "Audits": true,
    "Asses": true,
    "Decision": true,
    "Deci": true,
    "Certi": true,
    "Quali": true,
    "Dropdown": true,
    "Information": true,
    "Testing": true,
    "Coord": true,
    "Accounts": true,
    "Finaltest": true,
    "Ajaytest": true,
    "Kushi": true
}