{
    "name": "Kushi",
    "alias": "kushi",
    "version": "1.0.0",
	"description": "",
    "keywords": [],
    "priority": 1,
    "providers": [
        "Modules\\Kushi\\Providers\\KushiServiceProvider",
        "Modules\\Kushi\\Providers\\EventServiceProvider",
        "Modules\\Kushi\\Providers\\RouteServiceProvider"
    ],
    "aliases": {},
    "files": [],
    "requires": []
}
