{
    "name": "Finaltest",
    "alias": "finaltest",
    "version": "1.0.0",
	"description": "",
    "keywords": [],
    "priority": 1,
    "providers": [
        "Modules\\Finaltest\\Providers\\FinaltestServiceProvider",
        "Modules\\Finaltest\\Providers\\EventServiceProvider",
        "Modules\\Finaltest\\Providers\\RouteServiceProvider"
    ],
    "aliases": {},
    "files": [],
    "requires": []
}
